<svg xmlns="http://www.w3.org/2000/svg" width="67.085" height="67.085" viewBox="0 0 67.085 67.085">
  <g id="dish" transform="translate(0.25 0.25)">
    <g id="Group_1967" data-name="Group 1967" transform="translate(35.514 16.64)">
      <g id="Group_1966" data-name="Group 1966">
        <path id="Path_1110" data-name="Path 1110" d="M267.649,125.756l-.712-2.345a5.094,5.094,0,0,0-9.646,0l-.712,2.345a13.172,13.172,0,0,0-.367,6.1,5.741,5.741,0,0,0,2.956,4l-.8,17.837a3.515,3.515,0,0,0,.888,2.732,3.876,3.876,0,0,0,5.477.245q.128-.117.245-.245a3.467,3.467,0,0,0,.888-2.658l-.8-17.914a5.739,5.739,0,0,0,2.952-4A13.171,13.171,0,0,0,267.649,125.756Zm-1.819,5.717a3.519,3.519,0,0,1-2.3,2.651,1.11,1.11,0,0,0-.718,1.089l.843,18.734a1.284,1.284,0,0,1-.333,1.005,1.714,1.714,0,0,1-2.413,0,1.332,1.332,0,0,1-.326-1.079l.837-18.66a1.11,1.11,0,0,0-.718-1.089,3.519,3.519,0,0,1-2.3-2.651,10.943,10.943,0,0,1,.305-5.067l.712-2.346a2.878,2.878,0,0,1,5.4,0l.712,2.346A10.958,10.958,0,0,1,265.83,131.474Z" transform="translate(-256.012 -119.955)" stroke="#000" stroke-width="0.5"/>
      </g>
    </g>
    <g id="Group_1969" data-name="Group 1969" transform="translate(18.866 16.646)">
      <g id="Group_1968" data-name="Group 1968">
        <path id="Path_1111" data-name="Path 1111" d="M147.1,120a1.11,1.11,0,0,0-1.11,1.11v9.528l-3,3a1.11,1.11,0,0,0-.325.84l.971,19.421a1.512,1.512,0,0,1-.419,1.131,1.563,1.563,0,0,1-2.21.01l-.01-.01a1.511,1.511,0,0,1-.419-1.131l.978-19.421a1.11,1.11,0,0,0-.324-.84l-3.005-3V121.11a1.11,1.11,0,0,0-2.22,0V131.1a1.11,1.11,0,0,0,.325.785l2.981,2.982-.947,18.931a3.749,3.749,0,0,0,7.489.365q.009-.182,0-.365l-.947-18.931,2.981-2.982a1.11,1.11,0,0,0,.325-.785V121.11A1.11,1.11,0,0,0,147.1,120Z" transform="translate(-136 -120)" stroke="#000" stroke-width="0.5"/>
      </g>
    </g>
    <g id="Group_1971" data-name="Group 1971" transform="translate(22.195 16.646)">
      <g id="Group_1970" data-name="Group 1970">
        <path id="Path_1112" data-name="Path 1112" d="M161.11,120a1.11,1.11,0,0,0-1.11,1.11v8.878a1.11,1.11,0,1,0,2.219,0V121.11A1.11,1.11,0,0,0,161.11,120Z" transform="translate(-160 -120)" stroke="#000" stroke-width="0.5"/>
      </g>
    </g>
    <g id="Group_1973" data-name="Group 1973" transform="translate(25.524 16.646)">
      <g id="Group_1972" data-name="Group 1972">
        <path id="Path_1113" data-name="Path 1113" d="M185.11,120a1.11,1.11,0,0,0-1.11,1.11v8.878a1.11,1.11,0,1,0,2.219,0V121.11A1.11,1.11,0,0,0,185.11,120Z" transform="translate(-184 -120)" stroke="#000" stroke-width="0.5"/>
      </g>
    </g>
    <g id="Group_1975" data-name="Group 1975">
      <g id="Group_1974" data-name="Group 1974">
        <path id="Path_1114" data-name="Path 1114" d="M33.292,0A33.292,33.292,0,1,0,66.585,33.292,33.293,33.293,0,0,0,33.292,0Zm0,64.365A31.073,31.073,0,1,1,64.365,33.292,31.073,31.073,0,0,1,33.292,64.365Z" stroke="#000" stroke-width="0.5"/>
      </g>
    </g>
    <g id="Group_1977" data-name="Group 1977" transform="translate(29.701 53.122)">
      <g id="Group_1976" data-name="Group 1976">
        <path id="Path_1115" data-name="Path 1115" d="M221.306,383.951a1.11,1.11,0,0,0-1.212-1l-.043.005h0a20.391,20.391,0,0,1-4.7,0,1.11,1.11,0,1,0-.259,2.205,22.479,22.479,0,0,0,5.216,0A1.11,1.11,0,0,0,221.306,383.951Z" transform="translate(-214.113 -382.949)" stroke="#000" stroke-width="0.5"/>
      </g>
    </g>
    <g id="Group_1979" data-name="Group 1979" transform="translate(47.066 18.596)">
      <g id="Group_1978" data-name="Group 1978">
        <path id="Path_1116" data-name="Path 1116" d="M342.5,134.449a1.11,1.11,0,0,0-1.563-.137l0,0a1.11,1.11,0,0,0-.133,1.564,19.975,19.975,0,0,1-1.177,27.019,1.11,1.11,0,0,0,1.567,1.572A22.2,22.2,0,0,0,342.5,134.449Z" transform="translate(-339.295 -134.053)" stroke="#000" stroke-width="0.5"/>
      </g>
    </g>
    <g id="Group_1982" data-name="Group 1982" transform="translate(24.745 11.101)">
      <g id="Group_1981" data-name="Group 1981">
        <g id="Group_1980" data-name="Group 1980">
          <path id="Path_1117" data-name="Path 1117" d="M186.358,105.743h0Z" transform="translate(-185.246 -102.176)" stroke="#000" stroke-width="0.5"/>
          <path id="Path_1118" data-name="Path 1118" d="M192.164,80.643a22.391,22.391,0,0,0-13.063.8,1.109,1.109,0,1,0,.778,2.076,20.161,20.161,0,0,1,11.763-.721,1.11,1.11,0,1,0,.522-2.157Z" transform="translate(-178.382 -80.027)" stroke="#000" stroke-width="0.5"/>
        </g>
      </g>
    </g>
    <g id="Group_1984" data-name="Group 1984" transform="translate(11.096 19.766)">
      <g id="Group_1983" data-name="Group 1983">
        <path id="Path_1119" data-name="Path 1119" d="M88.035,170.109a19.973,19.973,0,0,1-2.006-25.844,1.11,1.11,0,1,0-1.774-1.334l-.019.026a22.2,22.2,0,0,0,2.227,28.723,1.112,1.112,0,1,0,1.573-1.571Z" transform="translate(-79.989 -142.488)" stroke="#000" stroke-width="0.5"/>
      </g>
    </g>
  </g>
</svg>
