<svg xmlns="http://www.w3.org/2000/svg" width="83.709" height="63.255" viewBox="0 0 83.709 63.255">
  <g id="dumbbell" transform="translate(0.5 -62.852)">
    <path id="Path_1120" data-name="Path 1120" d="M79.321,71.211h-3.88V67.987a4.641,4.641,0,0,0-4.635-4.635h-3.7a4.64,4.64,0,0,0-4.635,4.635V81.259h-6.2V77.7a4.685,4.685,0,0,0-7.415-3.812,4.688,4.688,0,0,0-8.334-.254,4.678,4.678,0,0,0-6.766,1.13,4.686,4.686,0,0,0-7.738,3.559v2.941H20.236V77.842a1.211,1.211,0,1,0-2.422,0v28.127a2.216,2.216,0,0,1-2.214,2.214H11.9a2.216,2.216,0,0,1-2.214-2.214V67.987A2.216,2.216,0,0,1,11.9,65.773h3.7a2.216,2.216,0,0,1,2.214,2.214v4.694a1.211,1.211,0,0,0,2.421,0V67.987A4.641,4.641,0,0,0,15.6,63.352H11.9a4.641,4.641,0,0,0-4.635,4.635v3.224H3.388A3.392,3.392,0,0,0,0,74.6V99.356a3.392,3.392,0,0,0,3.388,3.388h3.88v3.224A4.641,4.641,0,0,0,11.9,110.6h3.7a4.64,4.64,0,0,0,4.635-4.635V92.7h4.149v2.211A4.928,4.928,0,0,0,25.5,98.03l3.76,4.571V124.4a1.211,1.211,0,1,0,2.422,0V102.168a1.211,1.211,0,0,0-.276-.769l-4.036-4.907a2.5,2.5,0,0,1-.568-1.584V92.7l22.9.14a1.211,1.211,0,1,0,0-2.421H44.195a2.061,2.061,0,1,1,0-4.122h10.41a1.3,1.3,0,0,1,1.3,1.3v7.317a2.5,2.5,0,0,1-.568,1.584L51.3,101.4a1.211,1.211,0,0,0-.276.769v3.193a1.211,1.211,0,0,0,2.422,0V102.6L57.2,98.03a4.929,4.929,0,0,0,1.119-3.123V92.7h4.149v13.272a4.641,4.641,0,0,0,4.635,4.635h3.7a4.64,4.64,0,0,0,4.635-4.635v-3.224h3.88a3.392,3.392,0,0,0,3.388-3.388V74.6A3.391,3.391,0,0,0,79.321,71.211ZM3.388,100.323a.968.968,0,0,1-.967-.967V74.6a.968.968,0,0,1,.967-.967h3.88v26.69Zm48.2-24.895A2.271,2.271,0,0,1,53.856,77.7V82.2a2.266,2.266,0,0,1-.735,1.668H50.055a2.266,2.266,0,0,1-.735-1.668V77.7A2.271,2.271,0,0,1,51.587,75.428Zm-9.226.473a2.268,2.268,0,1,1,4.536,0v6.3a2.266,2.266,0,0,1-.735,1.668H44.2a4.476,4.476,0,0,0-.973.108,2.256,2.256,0,0,1-.861-1.775V75.9ZM35.4,77.343a2.268,2.268,0,0,1,4.536,0V82.2a2.268,2.268,0,1,1-4.536,0Zm-6.958.975a2.268,2.268,0,1,1,4.536,0V82.2a2.268,2.268,0,1,1-4.536,0Zm-8.209,5.362h6.028a4.686,4.686,0,0,0,7.93,1.664,4.671,4.671,0,0,0,6.163.7,4.474,4.474,0,0,0-.21,4.233H20.236Zm38.088,6.594V87.59A3.725,3.725,0,0,0,55.877,84.1q.09-.2.16-.415h6.437v6.594Zm21.964,9.081a.968.968,0,0,1-.967.967h-3.88v-3.5a1.211,1.211,0,1,0-2.422,0v9.144a2.216,2.216,0,0,1-2.214,2.214h-3.7a2.216,2.216,0,0,1-2.214-2.214V67.987a2.216,2.216,0,0,1,2.214-2.214h3.7a2.216,2.216,0,0,1,2.214,2.214V91.664a1.211,1.211,0,1,0,2.422,0V73.633h3.88a.968.968,0,0,1,.967.966Z" transform="translate(0 0)" fill="#303030" stroke="#303030" stroke-width="1"/>
    <path id="Path_1121" data-name="Path 1121" d="M317.275,348.04a1.211,1.211,0,0,0-1.211,1.211v13.875a1.211,1.211,0,1,0,2.421,0V349.251A1.211,1.211,0,0,0,317.275,348.04Z" transform="translate(-265.041 -238.73)" fill="#303030" stroke="#303030" stroke-width="1"/>
  </g>
</svg>
