<svg xmlns="http://www.w3.org/2000/svg" width="33.249" height="33.249" viewBox="0 0 33.249 33.249">
  <path id="Trazado_23" data-name="Trazado 23" d="M104.282,674.822a16.624,16.624,0,1,0,16.624,16.624A16.624,16.624,0,0,0,104.282,674.822Zm4.966,9.975a.4.4,0,0,1-.4.4h-2.383a1.19,1.19,0,0,0-1.187,1.193v2.777h3.57a.4.4,0,0,1,.376.522l-.793,2.38a.4.4,0,0,1-.376.271h-2.777v8.329a.4.4,0,0,1-.4.4h-2.38a.4.4,0,0,1-.4-.4v-8.329H99.332a.4.4,0,0,1-.4-.4v-2.38a.4.4,0,0,1,.4-.4h2.777v-2.777a4.368,4.368,0,0,1,4.363-4.363h2.38a.4.4,0,0,1,.4.4Z" transform="translate(-87.658 -674.822)" fill="#fff"/>
</svg>
