<svg xmlns="http://www.w3.org/2000/svg" width="103.99" height="103.991" viewBox="0 0 103.99 103.991">
  <g id="Grupo_26" data-name="Grupo 26" transform="translate(0 0)">
    <path id="Trazado_776" data-name="Trazado 776" d="M1717.734,739.845a52,52,0,1,0,15.229,36.766A51.655,51.655,0,0,0,1717.734,739.845Zm-36.766,85.932a49.166,49.166,0,1,1,49.166-49.166A49.221,49.221,0,0,1,1680.967,825.777Z" transform="translate(-1628.972 -724.616)" fill="#231f20"/>
    <path id="Trazado_777" data-name="Trazado 777" d="M1785.834,872.917l-6.458-5.881.227-.275.074-.1a34.031,34.031,0,0,0,3.232-32.7l-.443-1.037,1.92-2.816a20.1,20.1,0,0,0,3.222-14.745,4.675,4.675,0,0,0-4.383-3.886,20.09,20.09,0,0,0-14.252,4.967l-1.141,1-.394-.168a34.057,34.057,0,0,0-15.751-3.864,33.635,33.635,0,0,0-15.149,3.556l-.345.214-7.054-5.934a2.723,2.723,0,0,0-3.679,4.01l11.249,11.25a.5.5,0,0,1,0,.712l-.429.429-12.413-12.413a1.255,1.255,0,0,0-.893-.37h0a1.263,1.263,0,0,0-.892,2.156l12.412,12.412-.562.562-12.413-12.412a1.263,1.263,0,1,0-1.786,1.785l12.412,12.413-.428.43a.5.5,0,0,1-.712,0l-11.25-11.25a2.724,2.724,0,0,0-4.01,3.679l5.846,6.949-.183.363a34,34,0,0,0,5.524,38.713l-2.463,2.53a5.284,5.284,0,0,0-1.417,3.92,6.047,6.047,0,0,0,6.126,5.875c.16,0,.322-.006.481-.019a5.289,5.289,0,0,0,3.727-1.883l2.789-3.458.1.053a34.012,34.012,0,0,0,35.3-2.747l5.833,6.4a5.28,5.28,0,0,0,3.828,1.649h.117a6.054,6.054,0,0,0,6.124-6.244A5.29,5.29,0,0,0,1785.834,872.917ZM1738.5,824.724l-11.25-11.249a.2.2,0,0,1,.268-.291l14.683,12.351a7.715,7.715,0,0,1,1.985,4.969l.013,4.254a8.355,8.355,0,0,0,2.7,6.11l4.8,4.368-1.935,1.988-4.4-4.827a8.354,8.354,0,0,0-6.107-2.7l-4.249-.013a7.719,7.719,0,0,1-4.973-1.985l-12.351-14.682a.2.2,0,0,1,.012-.268.193.193,0,0,1,.14-.057.2.2,0,0,1,.14.058L1729.22,834a3.032,3.032,0,0,0,4.283,0l3.617-3.618h.1v-.1l1.271-1.271A3.032,3.032,0,0,0,1738.5,824.724Zm-12.209,50.229,27.272-28.016h0l1.167-1.2,6.7-6.881a8.347,8.347,0,0,0,2.325-6.257l-.242-4.243a7.688,7.688,0,0,1,2.632-6.075l4.5-3.933a17.579,17.579,0,0,1,11.615-4.365q.426,0,.854.02a2.148,2.148,0,0,1,2.013,1.784,17.582,17.582,0,0,1-2.819,12.9l-3.365,4.938a7.69,7.69,0,0,1-5.712,3.342l-4.245.268a8.359,8.359,0,0,0-5.937,3.062l-31.614,39.2a2.781,2.781,0,0,1-1.969.959,3.532,3.532,0,0,1-3.881-3.441A2.774,2.774,0,0,1,1726.286,874.953Zm31.523-24.144,26.315,23.969a2.784,2.784,0,0,1,.839,2.023,3.533,3.533,0,0,1-3.668,3.668,2.774,2.774,0,0,1-2.016-.831l-23.718-26.04Zm3.351-22.332Zm-26.18,13.558Zm42.4,22.972-.1.122L1759.4,848.84l5.606-6.951a5.816,5.816,0,0,1,4.135-2.131l4.262-.27.02,0a10.187,10.187,0,0,0,7.135-3.811,31.2,31.2,0,0,1-3.173,29.332Zm-25.7-48.762a31.241,31.241,0,0,1,13.825,3.231l-1.036.906a10.2,10.2,0,0,0-3.494,8.079l.244,4.283a5.809,5.809,0,0,1-1.616,4.357l-6.157,6.325L1748.6,839a5.816,5.816,0,0,1-1.879-4.254l-.013-4.264a.2.2,0,0,0,0-.028,10.232,10.232,0,0,0-2.7-6.69,1.32,1.32,0,0,0-.116-.112l-5.354-4.5A30.827,30.827,0,0,1,1751.687,816.244Zm-31.149,31.149a30.811,30.811,0,0,1,3.041-13.438l4.57,5.432a1.068,1.068,0,0,0,.112.119,10.219,10.219,0,0,0,6.679,2.7h.038l4.264.013a5.812,5.812,0,0,1,4.251,1.875l4.5,4.936-19.081,19.6A31.015,31.015,0,0,1,1720.538,847.393Zm31.149,31.149A30.809,30.809,0,0,1,1738,875.378l15.962-19.792,2.452,2.693.023.026,13.233,14.528A30.916,30.916,0,0,1,1751.687,878.542Z" transform="translate(-1699.869 -795.398)" fill="#231f20"/>
  </g>
</svg>
