<svg xmlns="http://www.w3.org/2000/svg" width="34" height="34" viewBox="0 0 34 34">
  <path id="Exclusión_4" data-name="Exclusión 4" d="M14505-206a16.894,16.894,0,0,1-12.023-4.978A16.89,16.89,0,0,1,14488-223a16.9,16.9,0,0,1,4.979-12.023A16.89,16.89,0,0,1,14505-240a16.884,16.884,0,0,1,12.02,4.979A16.893,16.893,0,0,1,14522-223a16.887,16.887,0,0,1-4.979,12.02A16.885,16.885,0,0,1,14505-206Zm-2.493-18.75a5.58,5.58,0,0,0-3.6,1.351,5.518,5.518,0,0,0-1.9,3.655c-.016.391,0,.794.008,1.1a5.542,5.542,0,0,0,2.689,4.206,5.387,5.387,0,0,0,2.734.766c.091,0,.183,0,.272-.008a5.475,5.475,0,0,0,4.355-2.365,5.627,5.627,0,0,0,.994-2.9c.015-1.362.014-2.745.013-4.082v-.464c0-.624,0-1.269,0-1.9a9.743,9.743,0,0,0,1.192.685,7.833,7.833,0,0,0,3.094.714v-2.97a5.258,5.258,0,0,1-3.123-1.319,4.6,4.6,0,0,1-1.29-3.072c-.384,0-.773,0-1.151,0h-.007c-.562,0-1.145,0-1.722.01-.014,1.862-.013,3.749-.012,5.575v.651c0,.875,0,1.78,0,2.668,0,.317,0,.661,0,1.051v.048c0,.934,0,1.9-.051,2.852a1.569,1.569,0,0,1-.271.726l-.031.054a2.493,2.493,0,0,1-2.041,1.188c-.061.005-.122.008-.184.008a2.523,2.523,0,0,1-2.4-2.122c0-.063,0-.127,0-.19a2.412,2.412,0,0,1,.107-1,2.578,2.578,0,0,1,1-1.29,2.416,2.416,0,0,1,1.377-.406,2.786,2.786,0,0,1,.85.132c0-.476.008-.955.017-1.4l0-.136c.01-.568.019-1.155.011-1.732A5.034,5.034,0,0,0,14502.509-224.751Z" transform="translate(-14488 240)" fill="#fff"/>
</svg>
