<svg xmlns="http://www.w3.org/2000/svg" width="68.236" height="68.261" viewBox="0 0 68.236 68.261">
  <g id="valet" transform="translate(0.5 0.525)">
    <g id="Page-1_52_" transform="translate(0 0.001)">
      <g id="_x30_53---Valet-Service" transform="translate(0 0)">
        <path id="Shape_158_" d="M4.482,383.574H14.954a4.482,4.482,0,0,0,3.4-1.569l1.345-1.569a3.38,3.38,0,0,1,2.689-1.345H43.726a5.482,5.482,0,0,0,3.747-1.635l13.992-14.231a4.5,4.5,0,0,0-6.1-6.611l-9.116,7.626a4.72,4.72,0,0,0-3.854-1.957H29.847a1.009,1.009,0,0,1-.645-.205,8.949,8.949,0,0,0-5.686-2.036,18.789,18.789,0,0,0-14.245,5.939c-.672.672-1.43,1.449-2.25,2.3L1.169,374.7A4.481,4.481,0,0,0,0,377.717v1.375a4.482,4.482,0,0,0,4.482,4.482Zm-2.241-5.857a2.241,2.241,0,0,1,.585-1.508l5.827-6.4c.784-.821,1.531-1.583,2.2-2.25a16.7,16.7,0,0,1,12.665-5.277,6.611,6.611,0,0,1,4.258,1.524,3.258,3.258,0,0,0,2.073.717H42.391a2.428,2.428,0,0,1,2.353,1.681,1.276,1.276,0,0,0,.04.172,1.823,1.823,0,0,1,.034.273,2.241,2.241,0,0,1-2.241,2.359H29.122a1.121,1.121,0,1,0,0,2.241H42.575a4.482,4.482,0,0,0,4.482-4.707v-.051l9.749-8.159a2.262,2.262,0,0,1,3.067,3.32L45.884,375.885a3.227,3.227,0,0,1-2.185.966H22.4a5.592,5.592,0,0,0-4.439,2.183l-1.3,1.515a2.241,2.241,0,0,1-1.7.784H4.482a2.241,2.241,0,0,1-2.241-2.241Z" transform="translate(0 -316.339)" stroke="#000" stroke-width="1"/>
        <path id="Shape_157_" d="M235.668,3.362h-2.241a3.362,3.362,0,0,0-3.063,1.991L210.37.164a5.87,5.87,0,0,0-5.331,1.369l-4.679,4.258a8.939,8.939,0,0,0-3.913,15.763v14.3a2.29,2.29,0,0,0,.653,1.588l3.362,3.362a2.249,2.249,0,0,0,3.176,0l3.384-3.384a2.274,2.274,0,0,0,.631-1.565v-14.3c.1-.084.2-.179.3-.269h10.186a1.019,1.019,0,0,1,.653.2,8.945,8.945,0,0,0,5.678,2.037h2.23a5.576,5.576,0,0,0,3.884-1.58,3.353,3.353,0,0,0,2.84,1.58h2.241a3.362,3.362,0,0,0,3.362-3.362V6.724a3.362,3.362,0,0,0-3.362-3.362ZM195.327,14.568a6.737,6.737,0,0,1,5.752-6.639,5.593,5.593,0,0,1,.972-.084,6.743,6.743,0,0,1,6.324,4.482h-2.951a4.47,4.47,0,0,0-4.482,4.707A4.543,4.543,0,0,0,204.007,21a6.723,6.723,0,0,1-8.68-6.436Zm6.724,24.653-3.362-3.362V22.873a8.924,8.924,0,0,0,2.241.583v7.922a1.121,1.121,0,0,0,2.241,0V23.456a8.923,8.923,0,0,0,2.241-.575V35.86ZM230.065,17.93a3.362,3.362,0,0,1-3.362,3.362h-2.23a6.611,6.611,0,0,1-4.251-1.525,3.262,3.262,0,0,0-2.08-.716H205.6a2.371,2.371,0,0,1-2.423-2.129,2.229,2.229,0,0,1,2.241-2.353h13.447a1.121,1.121,0,1,0,0-2.241h-8.151a9.006,9.006,0,0,0-7-6.563l2.831-2.577a3.623,3.623,0,0,1,3.278-.853l20.239,5.255Zm6.724,2.241a1.121,1.121,0,0,1-1.121,1.121h-2.241a1.121,1.121,0,0,1-1.121-1.121V6.724A1.121,1.121,0,0,1,233.427,5.6h2.241a1.121,1.121,0,0,1,1.121,1.121Z" transform="translate(-171.795 -0.001)" stroke="#000" stroke-width="1"/>
      </g>
    </g>
  </g>
</svg>
