<svg xmlns="http://www.w3.org/2000/svg" width="21.475" height="21.477" viewBox="0 0 21.475 21.477">
  <g id="global" transform="translate(-0.016 0.002)">
    <g id="Grupo_275" data-name="Grupo 275" transform="translate(0.016 -0.002)">
      <path id="Trazado_1089" data-name="Trazado 1089" d="M19.507,4.538a.179.179,0,0,0,0-.021c-.027-.038-.06-.071-.087-.109q-.3-.41-.637-.789c-.061-.069-.123-.137-.186-.2q-.346-.371-.726-.707c-.047-.041-.091-.084-.137-.125A10.753,10.753,0,0,0,15.7,1.208c-.029-.015-.06-.028-.09-.044a10.67,10.67,0,0,0-1-.444c-.077-.028-.147-.054-.219-.077Q13.935.48,13.468.357c-.092-.025-.184-.05-.278-.071-.307-.071-.614-.126-.928-.17-.1-.014-.189-.032-.285-.044a10.086,10.086,0,0,0-2.434,0c-.1.012-.189.03-.285.044-.314.045-.624.1-.928.17-.094.021-.186.047-.278.071q-.47.123-.921.286L6.914.72a10.663,10.663,0,0,0-1,.444c-.03.015-.061.028-.09.044A10.756,10.756,0,0,0,3.784,2.583c-.047.041-.091.084-.137.125a9.979,9.979,0,0,0-.726.707c-.063.068-.124.136-.186.2Q2.4,4,2.1,4.408c-.028.038-.061.071-.087.109A.174.174,0,0,0,2,4.538a10.672,10.672,0,0,0,0,12.4.167.167,0,0,0,.009.021c.027.038.06.071.087.109q.3.41.637.789c.061.069.123.137.186.2q.347.371.726.707c.047.041.091.084.137.125A10.753,10.753,0,0,0,5.82,20.265c.029.015.06.028.09.044a10.67,10.67,0,0,0,1,.444c.077.028.147.054.219.077q.453.163.921.286c.092.025.184.05.278.071.307.071.614.126.928.17.1.014.189.032.285.044a10.087,10.087,0,0,0,2.434,0c.1-.012.189-.03.285-.044.314-.045.624-.1.928-.17.094-.021.186-.047.278-.071q.471-.123.921-.286l.219-.077a10.664,10.664,0,0,0,1-.444c.03-.015.061-.028.09-.044a10.755,10.755,0,0,0,2.036-1.375c.047-.041.091-.084.137-.125a9.768,9.768,0,0,0,.726-.707c.063-.068.124-.136.186-.2q.337-.379.637-.789c.028-.038.061-.071.087-.109a.174.174,0,0,0,.009-.021A10.671,10.671,0,0,0,19.507,4.538ZM18.631,5.99a9.129,9.129,0,0,1,1.294,3.98h-4.6a14.317,14.317,0,0,0-.43-2.708A13.787,13.787,0,0,0,18.631,5.99ZM12.71,1.741c.043.01.084.024.127.034a8.257,8.257,0,0,1,.813.23c.041.014.081.03.12.045q.4.138.779.307l.133.064q.366.174.715.377l.153.093q.331.2.644.434c.054.039.107.077.16.12a7,7,0,0,1,.588.493c.049.045.1.088.148.134.2.186.384.384.565.588.023.027.048.051.071.077a12.87,12.87,0,0,1-3.272,1.051,19.509,19.509,0,0,0-2.065-4.1C12.5,1.708,12.6,1.719,12.71,1.741ZM7.717,9.969a12.8,12.8,0,0,1,.422-2.455,21.985,21.985,0,0,0,2.619.153A22.035,22.035,0,0,0,13.38,7.51a12.778,12.778,0,0,1,.42,2.459ZM13.8,11.5a12.8,12.8,0,0,1-.422,2.455,22.455,22.455,0,0,0-5.241,0,12.781,12.781,0,0,1-.42-2.455ZM10.758,2.03A18.531,18.531,0,0,1,12.9,6.02a20.307,20.307,0,0,1-2.138.114,20.46,20.46,0,0,1-2.136-.114A18.677,18.677,0,0,1,10.758,2.03ZM3.86,4.659c.18-.2.368-.4.565-.588.048-.046.1-.09.148-.134q.284-.259.588-.493c.053-.041.107-.077.16-.12q.313-.23.644-.434L6.119,2.8q.349-.2.715-.377l.133-.064q.382-.173.779-.307c.04-.015.077-.031.12-.045.266-.089.537-.163.813-.23.043-.01.084-.024.128-.033.105-.023.214-.034.321-.053a19.51,19.51,0,0,0-2.066,4.1A12.869,12.869,0,0,1,3.79,4.737C3.813,4.71,3.837,4.685,3.86,4.659ZM2.884,5.99a13.785,13.785,0,0,0,3.73,1.272,14.317,14.317,0,0,0-.429,2.708H1.59A9.13,9.13,0,0,1,2.884,5.99Zm0,9.494A9.129,9.129,0,0,1,1.59,11.5h4.6a14.317,14.317,0,0,0,.43,2.708A13.784,13.784,0,0,0,2.884,15.484Zm5.922,4.248c-.043-.01-.084-.024-.127-.034a8.257,8.257,0,0,1-.813-.23c-.041-.014-.081-.03-.12-.045q-.4-.138-.779-.307l-.133-.064q-.366-.174-.715-.377l-.153-.093q-.331-.2-.644-.434c-.054-.039-.107-.077-.16-.12a7,7,0,0,1-.588-.493c-.049-.045-.1-.088-.148-.134-.2-.186-.384-.384-.565-.588-.023-.027-.048-.051-.071-.077a12.87,12.87,0,0,1,3.272-1.051,19.509,19.509,0,0,0,2.065,4.1C9.02,19.765,8.911,19.755,8.806,19.732Zm1.952-.288a18.531,18.531,0,0,1-2.138-3.99,19.974,19.974,0,0,1,4.275,0h0A18.673,18.673,0,0,1,10.758,19.443Zm6.9-2.629c-.18.2-.368.4-.565.588-.048.046-.1.09-.148.134q-.284.259-.588.493c-.053.041-.107.081-.16.12q-.313.23-.644.434l-.153.093q-.348.2-.715.377l-.133.064q-.382.173-.779.307c-.04.015-.077.031-.12.045-.266.089-.537.163-.813.23-.043.01-.084.024-.128.033-.105.023-.214.034-.321.053a19.507,19.507,0,0,0,2.065-4.1,12.869,12.869,0,0,1,3.272,1.051C17.7,16.763,17.678,16.788,17.655,16.815Zm.976-1.331a13.785,13.785,0,0,0-3.73-1.272A14.317,14.317,0,0,0,15.33,11.5h4.6A9.131,9.131,0,0,1,18.631,15.484Z" transform="translate(-0.016 0.002)" fill="#bababa"/>
    </g>
  </g>
</svg>
